{
  "name": "comp_deps",
  "version": "1.0.0",
  "description": "A magic component",
  "main": "index.js",
  "author": "icefox0801<icefox0801@hotmail.com>",
  "dependencies": [
    "comp_sub_a@1.1.0",
    "comp_sub_b@1.0.1"
  ],
  "devDependencies": [],
  "exclude": [
    "docs",
    "examples",
    "test",
    "README.md"
  ]
}
